Load,Throughput,Avg,95%,99%
0,0.0,22,55,110
10,89.9,45,100,130
20,176.18,51,150,210
30,225.78,94,250,320
40,233.6,103,290,360
50,241.08,113,330,410
60,300.34,173,470,550
70,306.46,182,510,620
80,316.33,199,550,680
90,321.69,210,580,700
100,323.85,233,660,780
