Load,Throughput,Avg,95%,99%
0,0.0,231,1200,2000
10,54.49,233,960,1700
20,90.43,210,610,1000
30,93.39,246,700,1400
40,99.86,246,770,1600
50,112.91,247,730,1300
60,141.58,320,1000,1800
70,138.6,319,920,1800
80,148.73,331,1000,1800
90,142.07,376,1300,2300
100,143.66,354,1100,1600
